1 43270
0 73141
1 31386
1 3100
0 53782
0 30298
1 92286
0 61219
0 32794
0 7334
0 71587
1 9655
1 99569
0 26634
0 21144
0 64578
1 53653
0 71850
0 78560
0 76632
1 5392
0 41764
1 98864
1 22649
0 10978
1 98845
0 59633
0 46014
0 59060
1 28701
0 95424
0 72808
0 85911
1 68334
1 216
0 7672
0 39994
0 31844
1 8771
0 13269
0 60605
0 20114
1 37787
0 16164
1 17083
1 95499
1 23432
0 31237
0 93600
1 32144
0 86647
1 9127
1 34501
0 86527
1 52568
0 79956
0 39718
1 23573
0 88102
1 73659
0 54498
1 98844
1 45831
0 95515
0 51889
1 30877
0 41009
0 81523
0 57530
0 84656
1 59007
0 30402
1 66700
0 42165
1 74319
1 26938
0 3111
1 51576
0 78752
1 74629
0 16847
0 54196
1 50614
1 43319
1 48421
1 67947
0 5822
0 37661
0 59456
1 96107
1 62677
1 35330
0 17720
0 60860
0 84171
1 34938
0 4795
1 49426
0 9813
0 34583
